// Jest Snapshot v1, https://goo.gl/fbAQLP

exports[`CharProfileReadOnly Spec should render and compare with snapshot 1`] = `
<DocumentFragment>
  <div>
    <h3
      class="pt-3"
    >
      Hero name
    </h3>
    <p
      class="mt-4"
    >
      Hero description text
    </p>
  </div>
</DocumentFragment>
`;
