// Jest Snapshot v1, https://goo.gl/fbAQLP

exports[`Card Component SPEC should render and show correct data in component 1`] = `
<DocumentFragment>
  <div
    class="col-lg-2 col-md-4 col-sm-6 mt-4 d-flex align-items-stretch"
  >
    <div
      class="card d-flex"
    >
      <div
        class="card-char-img"
      >
        <img
          alt="Char profile pic"
          class="card-img-top"
          data-testid="card-component-char-picture"
          src="http://route-to-image.com/image-id.jpg"
        />
      </div>
      <div
        class="card-body card-char-body d-flex"
      >
        <h5
          class="card-char-title"
        >
          Test Hero
        </h5>
        <a
          class="card-char-view-details btn-marvel rounded-pill"
          href="/character-details/1"
        >
          View Details
        </a>
      </div>
    </div>
  </div>
</DocumentFragment>
`;
